2020-02-21 11:53:26,194 ERROR: Exception on /login [GET] [in $(pathmane)s:1891]
Traceback (most recent call last):
  File "/Users/Admin/miniconda3/lib/python3.7/site-packages/flask/app.py", line 2446, in wsgi_app
    response = self.full_dispatch_request()
  File "/Users/Admin/miniconda3/lib/python3.7/site-packages/flask/app.py", line 1951, in full_dispatch_request
    rv = self.handle_user_exception(e)
  File "/Users/Admin/miniconda3/lib/python3.7/site-packages/flask/app.py", line 1820, in handle_user_exception
    reraise(exc_type, exc_value, tb)
  File "/Users/Admin/miniconda3/lib/python3.7/site-packages/flask/_compat.py", line 39, in reraise
    raise value
  File "/Users/Admin/miniconda3/lib/python3.7/site-packages/flask/app.py", line 1949, in full_dispatch_request
    rv = self.dispatch_request()
  File "/Users/Admin/miniconda3/lib/python3.7/site-packages/flask/app.py", line 1935, in dispatch_request
    return self.view_functions[rule.endpoint](**req.view_args)
  File "/Users/Admin/Documents/learn/blog/app/routes.py", line 48, in login
    return render_template('login.html', title = 'Sign In', form = form)
  File "/Users/Admin/miniconda3/lib/python3.7/site-packages/flask/templating.py", line 140, in render_template
    ctx.app,
  File "/Users/Admin/miniconda3/lib/python3.7/site-packages/flask/templating.py", line 120, in _render
    rv = template.render(context)
  File "/Users/Admin/miniconda3/lib/python3.7/site-packages/jinja2/environment.py", line 1090, in render
    self.environment.handle_exception()
  File "/Users/Admin/miniconda3/lib/python3.7/site-packages/jinja2/environment.py", line 832, in handle_exception
    reraise(*rewrite_traceback_stack(source=source))
  File "/Users/Admin/miniconda3/lib/python3.7/site-packages/jinja2/_compat.py", line 28, in reraise
    raise value.with_traceback(tb)
  File "/Users/Admin/Documents/learn/blog/app/templates/login.html", line 1, in top-level template code
    {% extends "base.html" %}
  File "/Users/Admin/Documents/learn/blog/app/templates/base.html", line 28, in top-level template code
    {% block content %}{% endblock %}
  File "/Users/Admin/Documents/learn/blog/app/templates/login.html", line 24, in block "content"
    <a href="{{ url_for('reset_password_request') }}">Click to reset it</a>
  File "/Users/Admin/miniconda3/lib/python3.7/site-packages/flask/helpers.py", line 370, in url_for
    return appctx.app.handle_url_build_error(error, endpoint, values)
  File "/Users/Admin/miniconda3/lib/python3.7/site-packages/flask/app.py", line 2215, in handle_url_build_error
    reraise(exc_type, exc_value, tb)
  File "/Users/Admin/miniconda3/lib/python3.7/site-packages/flask/_compat.py", line 39, in reraise
    raise value
  File "/Users/Admin/miniconda3/lib/python3.7/site-packages/flask/helpers.py", line 358, in url_for
    endpoint, values, method=method, force_external=external
  File "/Users/Admin/miniconda3/lib/python3.7/site-packages/werkzeug/routing.py", line 2179, in build
    raise BuildError(endpoint, values, method, self)
werkzeug.routing.BuildError: Could not build url for endpoint 'reset_password_request'. Did you mean 'edit_profile' instead?
2020-02-21 11:53:31,141 ERROR: Exception on /login [GET] [in $(pathmane)s:1891]
Traceback (most recent call last):
  File "/Users/Admin/miniconda3/lib/python3.7/site-packages/flask/app.py", line 2446, in wsgi_app
    response = self.full_dispatch_request()
  File "/Users/Admin/miniconda3/lib/python3.7/site-packages/flask/app.py", line 1951, in full_dispatch_request
    rv = self.handle_user_exception(e)
  File "/Users/Admin/miniconda3/lib/python3.7/site-packages/flask/app.py", line 1820, in handle_user_exception
    reraise(exc_type, exc_value, tb)
  File "/Users/Admin/miniconda3/lib/python3.7/site-packages/flask/_compat.py", line 39, in reraise
    raise value
  File "/Users/Admin/miniconda3/lib/python3.7/site-packages/flask/app.py", line 1949, in full_dispatch_request
    rv = self.dispatch_request()
  File "/Users/Admin/miniconda3/lib/python3.7/site-packages/flask/app.py", line 1935, in dispatch_request
    return self.view_functions[rule.endpoint](**req.view_args)
  File "/Users/Admin/Documents/learn/blog/app/routes.py", line 48, in login
    return render_template('login.html', title = 'Sign In', form = form)
  File "/Users/Admin/miniconda3/lib/python3.7/site-packages/flask/templating.py", line 140, in render_template
    ctx.app,
  File "/Users/Admin/miniconda3/lib/python3.7/site-packages/flask/templating.py", line 120, in _render
    rv = template.render(context)
  File "/Users/Admin/miniconda3/lib/python3.7/site-packages/jinja2/environment.py", line 1090, in render
    self.environment.handle_exception()
  File "/Users/Admin/miniconda3/lib/python3.7/site-packages/jinja2/environment.py", line 832, in handle_exception
    reraise(*rewrite_traceback_stack(source=source))
  File "/Users/Admin/miniconda3/lib/python3.7/site-packages/jinja2/_compat.py", line 28, in reraise
    raise value.with_traceback(tb)
  File "/Users/Admin/Documents/learn/blog/app/templates/login.html", line 1, in top-level template code
    {% extends "base.html" %}
  File "/Users/Admin/Documents/learn/blog/app/templates/base.html", line 28, in top-level template code
    {% block content %}{% endblock %}
  File "/Users/Admin/Documents/learn/blog/app/templates/login.html", line 24, in block "content"
    <a href="{{ url_for('reset_password_request') }}">Click to reset it</a>
  File "/Users/Admin/miniconda3/lib/python3.7/site-packages/flask/helpers.py", line 370, in url_for
    return appctx.app.handle_url_build_error(error, endpoint, values)
  File "/Users/Admin/miniconda3/lib/python3.7/site-packages/flask/app.py", line 2215, in handle_url_build_error
    reraise(exc_type, exc_value, tb)
  File "/Users/Admin/miniconda3/lib/python3.7/site-packages/flask/_compat.py", line 39, in reraise
    raise value
  File "/Users/Admin/miniconda3/lib/python3.7/site-packages/flask/helpers.py", line 358, in url_for
    endpoint, values, method=method, force_external=external
  File "/Users/Admin/miniconda3/lib/python3.7/site-packages/werkzeug/routing.py", line 2179, in build
    raise BuildError(endpoint, values, method, self)
werkzeug.routing.BuildError: Could not build url for endpoint 'reset_password_request'. Did you mean 'edit_profile' instead?
2020-02-21 12:05:03,186 INFO: Blog startup [in $(pathmane)s:45]
2020-02-21 12:05:15,300 INFO: Blog startup [in $(pathmane)s:45]
2020-02-21 12:05:59,845 INFO: Blog startup [in $(pathmane)s:45]
2020-02-21 12:06:33,900 INFO: Blog startup [in $(pathmane)s:45]
2020-02-21 12:08:09,272 INFO: Blog startup [in $(pathmane)s:45]
2020-02-21 12:08:21,012 INFO: Blog startup [in $(pathmane)s:45]
2020-02-21 13:08:07,902 INFO: Blog startup [in $(pathmane)s:45]
2020-02-21 13:08:28,891 INFO: Blog startup [in $(pathmane)s:45]
2020-02-21 13:08:38,568 ERROR: Exception on /reset_password_request [GET] [in $(pathmane)s:1891]
Traceback (most recent call last):
  File "/Users/Admin/miniconda3/lib/python3.7/site-packages/flask/app.py", line 2446, in wsgi_app
    response = self.full_dispatch_request()
  File "/Users/Admin/miniconda3/lib/python3.7/site-packages/flask/app.py", line 1951, in full_dispatch_request
    rv = self.handle_user_exception(e)
  File "/Users/Admin/miniconda3/lib/python3.7/site-packages/flask/app.py", line 1820, in handle_user_exception
    reraise(exc_type, exc_value, tb)
  File "/Users/Admin/miniconda3/lib/python3.7/site-packages/flask/_compat.py", line 39, in reraise
    raise value
  File "/Users/Admin/miniconda3/lib/python3.7/site-packages/flask/app.py", line 1949, in full_dispatch_request
    rv = self.dispatch_request()
  File "/Users/Admin/miniconda3/lib/python3.7/site-packages/flask/app.py", line 1935, in dispatch_request
    return self.view_functions[rule.endpoint](**req.view_args)
  File "/Users/Admin/Documents/learn/blog/app/routes.py", line 138, in reset_password_request
    form = ResetPasswordRequestFrom()
NameError: name 'ResetPasswordRequestFrom' is not defined
2020-02-21 13:10:23,945 INFO: Blog startup [in $(pathmane)s:45]
