2020-02-21 14:37:19,272 INFO: Blog startup [in $(pathmane)s:45]
2020-02-21 14:37:27,542 INFO: Blog startup [in $(pathmane)s:45]
2020-02-21 14:37:41,856 ERROR: Exception on /reset_password_request [POST] [in $(pathmane)s:1891]
Traceback (most recent call last):
  File "/Users/Admin/miniconda3/lib/python3.7/site-packages/flask/app.py", line 2446, in wsgi_app
    response = self.full_dispatch_request()
  File "/Users/Admin/miniconda3/lib/python3.7/site-packages/flask/app.py", line 1951, in full_dispatch_request
    rv = self.handle_user_exception(e)
  File "/Users/Admin/miniconda3/lib/python3.7/site-packages/flask/app.py", line 1820, in handle_user_exception
    reraise(exc_type, exc_value, tb)
  File "/Users/Admin/miniconda3/lib/python3.7/site-packages/flask/_compat.py", line 39, in reraise
    raise value
  File "/Users/Admin/miniconda3/lib/python3.7/site-packages/flask/app.py", line 1949, in full_dispatch_request
    rv = self.dispatch_request()
  File "/Users/Admin/miniconda3/lib/python3.7/site-packages/flask/app.py", line 1935, in dispatch_request
    return self.view_functions[rule.endpoint](**req.view_args)
  File "/Users/Admin/Documents/learn/blog/app/routes.py", line 142, in reset_password_request
    send_password_reset_email(user)
  File "/Users/Admin/Documents/learn/blog/app/email.py", line 23, in send_password_reset_email
    html_body = render_template('email/reset_password.html', user = user, token = token))
  File "/Users/Admin/Documents/learn/blog/app/email.py", line 12, in send_email
    mailserver.login(recipients)
TypeError: login() missing 1 required positional argument: 'password'
2020-02-21 14:39:14,400 INFO: Blog startup [in $(pathmane)s:45]
2020-02-21 14:39:29,107 ERROR: Exception on /reset_password_request [POST] [in $(pathmane)s:1891]
Traceback (most recent call last):
  File "/Users/Admin/miniconda3/lib/python3.7/site-packages/flask/app.py", line 2446, in wsgi_app
    response = self.full_dispatch_request()
  File "/Users/Admin/miniconda3/lib/python3.7/site-packages/flask/app.py", line 1951, in full_dispatch_request
    rv = self.handle_user_exception(e)
  File "/Users/Admin/miniconda3/lib/python3.7/site-packages/flask/app.py", line 1820, in handle_user_exception
    reraise(exc_type, exc_value, tb)
  File "/Users/Admin/miniconda3/lib/python3.7/site-packages/flask/_compat.py", line 39, in reraise
    raise value
  File "/Users/Admin/miniconda3/lib/python3.7/site-packages/flask/app.py", line 1949, in full_dispatch_request
    rv = self.dispatch_request()
  File "/Users/Admin/miniconda3/lib/python3.7/site-packages/flask/app.py", line 1935, in dispatch_request
    return self.view_functions[rule.endpoint](**req.view_args)
  File "/Users/Admin/Documents/learn/blog/app/routes.py", line 142, in reset_password_request
    send_password_reset_email(user)
  File "/Users/Admin/Documents/learn/blog/app/email.py", line 23, in send_password_reset_email
    html_body = render_template('email/reset_password.html', user = user, token = token))
  File "/Users/Admin/Documents/learn/blog/app/email.py", line 13, in send_email
    mailserver.sendmail(app.config['MAIL_USERNAME'], to, message)
  File "/Users/Admin/miniconda3/lib/python3.7/smtplib.py", line 858, in sendmail
    esmtp_opts.append("size=%d" % len(msg))
TypeError: object of type 'Message' has no len()
2020-02-21 15:06:16,591 INFO: Blog startup [in $(pathmane)s:45]
2020-02-21 15:07:35,258 INFO: Blog startup [in $(pathmane)s:45]
2020-02-21 15:13:49,992 INFO: Blog startup [in $(pathmane)s:45]
2020-02-21 15:23:14,320 INFO: Blog startup [in $(pathmane)s:45]
2020-02-21 15:23:19,714 ERROR: Exception on /reset_password/eyJ0eXAiOiJKV1QiLCJhbGciOiJIUzI1NiJ9.eyJyZXNldF9wYXNzd29yZCI6MSwiZXhwIjoxNTgyMjg2ODYwLjU0MTQzNn0.qFgtNVp3VvQ3C4p5z3uBmzDBttFVld5kK3qKz4h9Sug [GET] [in $(pathmane)s:1891]
Traceback (most recent call last):
  File "/Users/Admin/miniconda3/lib/python3.7/site-packages/flask/app.py", line 2446, in wsgi_app
    response = self.full_dispatch_request()
  File "/Users/Admin/miniconda3/lib/python3.7/site-packages/flask/app.py", line 1951, in full_dispatch_request
    rv = self.handle_user_exception(e)
  File "/Users/Admin/miniconda3/lib/python3.7/site-packages/flask/app.py", line 1820, in handle_user_exception
    reraise(exc_type, exc_value, tb)
  File "/Users/Admin/miniconda3/lib/python3.7/site-packages/flask/_compat.py", line 39, in reraise
    raise value
  File "/Users/Admin/miniconda3/lib/python3.7/site-packages/flask/app.py", line 1949, in full_dispatch_request
    rv = self.dispatch_request()
  File "/Users/Admin/miniconda3/lib/python3.7/site-packages/flask/app.py", line 1935, in dispatch_request
    return self.view_functions[rule.endpoint](**req.view_args)
  File "/Users/Admin/Documents/learn/blog/app/routes.py", line 153, in reset_password
    return redirect(url_for('index'), title = 'not user')
TypeError: redirect() got an unexpected keyword argument 'title'
2020-02-21 15:24:13,825 INFO: Blog startup [in $(pathmane)s:45]
2020-02-21 15:24:38,273 INFO: Blog startup [in $(pathmane)s:45]
2020-02-21 15:29:20,113 INFO: Blog startup [in $(pathmane)s:45]
2020-02-21 15:32:57,795 INFO: Blog startup [in $(pathmane)s:45]
2020-02-21 15:33:21,404 ERROR: Exception on /reset_password/eyJ0eXAiOiJKV1QiLCJhbGciOiJIUzI1NiJ9.eyJyZXNldF9wYXNzd29yZCI6MSwiZXhwIjoxNTgyMjg4OTg1LjcwODMzNTJ9.X0Mn3843P_HTg6Sy__gR9jeiGI9g_KNSpeNd_ix8G_E [GET] [in $(pathmane)s:1891]
Traceback (most recent call last):
  File "/Users/Admin/miniconda3/lib/python3.7/site-packages/flask/app.py", line 2446, in wsgi_app
    response = self.full_dispatch_request()
  File "/Users/Admin/miniconda3/lib/python3.7/site-packages/flask/app.py", line 1951, in full_dispatch_request
    rv = self.handle_user_exception(e)
  File "/Users/Admin/miniconda3/lib/python3.7/site-packages/flask/app.py", line 1820, in handle_user_exception
    reraise(exc_type, exc_value, tb)
  File "/Users/Admin/miniconda3/lib/python3.7/site-packages/flask/_compat.py", line 39, in reraise
    raise value
  File "/Users/Admin/miniconda3/lib/python3.7/site-packages/flask/app.py", line 1949, in full_dispatch_request
    rv = self.dispatch_request()
  File "/Users/Admin/miniconda3/lib/python3.7/site-packages/flask/app.py", line 1935, in dispatch_request
    return self.view_functions[rule.endpoint](**req.view_args)
  File "/Users/Admin/Documents/learn/blog/app/routes.py", line 156, in reset_password
    form = ResetPasswordForm()
NameError: name 'ResetPasswordForm' is not defined
2020-02-21 15:33:54,503 INFO: Blog startup [in $(pathmane)s:45]
2020-02-21 15:39:41,451 INFO: Blog startup [in $(pathmane)s:45]
2020-02-21 16:24:01,065 INFO: Blog startup [in $(pathmane)s:47]
2020-02-21 16:35:33,340 INFO: Blog startup [in $(pathmane)s:47]
2020-02-21 16:38:17,163 INFO: Blog startup [in $(pathmane)s:47]
2020-02-21 16:47:33,924 INFO: Blog startup [in $(pathmane)s:47]
2020-02-21 16:48:37,513 INFO: Blog startup [in $(pathmane)s:47]
2020-02-21 16:51:53,687 INFO: Blog startup [in $(pathmane)s:47]
2020-02-21 16:52:40,766 INFO: Blog startup [in $(pathmane)s:47]
2020-02-21 16:53:00,081 INFO: Blog startup [in $(pathmane)s:47]
2020-02-21 16:58:51,668 INFO: Blog startup [in $(pathmane)s:47]
