2020-02-21 14:07:44,923 ERROR: Exception on /reset_password_request [POST] [in $(pathmane)s:1891]
Traceback (most recent call last):
  File "/Users/Admin/miniconda3/lib/python3.7/site-packages/flask/app.py", line 2446, in wsgi_app
    response = self.full_dispatch_request()
  File "/Users/Admin/miniconda3/lib/python3.7/site-packages/flask/app.py", line 1951, in full_dispatch_request
    rv = self.handle_user_exception(e)
  File "/Users/Admin/miniconda3/lib/python3.7/site-packages/flask/app.py", line 1820, in handle_user_exception
    reraise(exc_type, exc_value, tb)
  File "/Users/Admin/miniconda3/lib/python3.7/site-packages/flask/_compat.py", line 39, in reraise
    raise value
  File "/Users/Admin/miniconda3/lib/python3.7/site-packages/flask/app.py", line 1949, in full_dispatch_request
    rv = self.dispatch_request()
  File "/Users/Admin/miniconda3/lib/python3.7/site-packages/flask/app.py", line 1935, in dispatch_request
    return self.view_functions[rule.endpoint](**req.view_args)
  File "/Users/Admin/Documents/learn/blog/app/routes.py", line 142, in reset_password_request
    send_password_reset_email(user)
  File "/Users/Admin/Documents/learn/blog/app/email.py", line 19, in send_password_reset_email
    text_html = render_template('email/reset_password.html', user = user, token = token))
TypeError: send_email() got multiple values for argument 'sender'
2020-02-21 14:10:51,541 INFO: Blog startup [in $(pathmane)s:45]
2020-02-21 14:10:56,339 ERROR: Exception on /reset_password_request [POST] [in $(pathmane)s:1891]
Traceback (most recent call last):
  File "/Users/Admin/miniconda3/lib/python3.7/site-packages/flask/app.py", line 2446, in wsgi_app
    response = self.full_dispatch_request()
  File "/Users/Admin/miniconda3/lib/python3.7/site-packages/flask/app.py", line 1951, in full_dispatch_request
    rv = self.handle_user_exception(e)
  File "/Users/Admin/miniconda3/lib/python3.7/site-packages/flask/app.py", line 1820, in handle_user_exception
    reraise(exc_type, exc_value, tb)
  File "/Users/Admin/miniconda3/lib/python3.7/site-packages/flask/_compat.py", line 39, in reraise
    raise value
  File "/Users/Admin/miniconda3/lib/python3.7/site-packages/flask/app.py", line 1949, in full_dispatch_request
    rv = self.dispatch_request()
  File "/Users/Admin/miniconda3/lib/python3.7/site-packages/flask/app.py", line 1935, in dispatch_request
    return self.view_functions[rule.endpoint](**req.view_args)
  File "/Users/Admin/Documents/learn/blog/app/routes.py", line 142, in reset_password_request
    send_password_reset_email(user)
  File "/Users/Admin/Documents/learn/blog/app/email.py", line 15, in send_password_reset_email
    send_email(sender = app.config['ADMINS'][0], to = [user.email])
  File "/Users/Admin/Documents/learn/blog/app/email.py", line 7, in send_email
    message = Message(subject, sender = sender, recipients = recipients)
NameError: name 'subject' is not defined
2020-02-21 14:28:46,321 INFO: Blog startup [in $(pathmane)s:45]
2020-02-21 14:29:30,468 INFO: Blog startup [in $(pathmane)s:45]
2020-02-21 14:29:33,055 INFO: Blog startup [in $(pathmane)s:45]
2020-02-21 14:29:56,723 INFO: Blog startup [in $(pathmane)s:45]
2020-02-21 14:30:23,308 ERROR: Exception on /reset_password_request [POST] [in $(pathmane)s:1891]
Traceback (most recent call last):
  File "/Users/Admin/miniconda3/lib/python3.7/site-packages/flask/app.py", line 2446, in wsgi_app
    response = self.full_dispatch_request()
  File "/Users/Admin/miniconda3/lib/python3.7/site-packages/flask/app.py", line 1951, in full_dispatch_request
    rv = self.handle_user_exception(e)
  File "/Users/Admin/miniconda3/lib/python3.7/site-packages/flask/app.py", line 1820, in handle_user_exception
    reraise(exc_type, exc_value, tb)
  File "/Users/Admin/miniconda3/lib/python3.7/site-packages/flask/_compat.py", line 39, in reraise
    raise value
  File "/Users/Admin/miniconda3/lib/python3.7/site-packages/flask/app.py", line 1949, in full_dispatch_request
    rv = self.dispatch_request()
  File "/Users/Admin/miniconda3/lib/python3.7/site-packages/flask/app.py", line 1935, in dispatch_request
    return self.view_functions[rule.endpoint](**req.view_args)
  File "/Users/Admin/Documents/learn/blog/app/routes.py", line 142, in reset_password_request
    send_password_reset_email(user)
  File "/Users/Admin/Documents/learn/blog/app/email.py", line 20, in send_password_reset_email
    html_body = render_template('email/reset_password.html', user = user, token = token))
TypeError: send_email() missing 1 required positional argument: 'to'
2020-02-21 14:30:48,979 INFO: Blog startup [in $(pathmane)s:45]
2020-02-21 14:30:59,846 ERROR: Exception on /reset_password_request [POST] [in $(pathmane)s:1891]
Traceback (most recent call last):
  File "/Users/Admin/miniconda3/lib/python3.7/site-packages/flask/app.py", line 2446, in wsgi_app
    response = self.full_dispatch_request()
  File "/Users/Admin/miniconda3/lib/python3.7/site-packages/flask/app.py", line 1951, in full_dispatch_request
    rv = self.handle_user_exception(e)
  File "/Users/Admin/miniconda3/lib/python3.7/site-packages/flask/app.py", line 1820, in handle_user_exception
    reraise(exc_type, exc_value, tb)
  File "/Users/Admin/miniconda3/lib/python3.7/site-packages/flask/_compat.py", line 39, in reraise
    raise value
  File "/Users/Admin/miniconda3/lib/python3.7/site-packages/flask/app.py", line 1949, in full_dispatch_request
    rv = self.dispatch_request()
  File "/Users/Admin/miniconda3/lib/python3.7/site-packages/flask/app.py", line 1935, in dispatch_request
    return self.view_functions[rule.endpoint](**req.view_args)
  File "/Users/Admin/Documents/learn/blog/app/routes.py", line 142, in reset_password_request
    send_password_reset_email(user)
  File "/Users/Admin/Documents/learn/blog/app/email.py", line 20, in send_password_reset_email
    html_body = render_template('email/reset_password.html', user = user, token = token))
  File "/Users/Admin/Documents/learn/blog/app/email.py", line 8, in send_email
    message.body = render_template('email/reset_password.txt', user = user, token = token)
NameError: name 'user' is not defined
2020-02-21 14:32:00,279 INFO: Blog startup [in $(pathmane)s:45]
2020-02-21 14:32:09,266 ERROR: Exception on /reset_password_request [POST] [in $(pathmane)s:1891]
Traceback (most recent call last):
  File "/Users/Admin/miniconda3/lib/python3.7/site-packages/flask/app.py", line 2446, in wsgi_app
    response = self.full_dispatch_request()
  File "/Users/Admin/miniconda3/lib/python3.7/site-packages/flask/app.py", line 1951, in full_dispatch_request
    rv = self.handle_user_exception(e)
  File "/Users/Admin/miniconda3/lib/python3.7/site-packages/flask/app.py", line 1820, in handle_user_exception
    reraise(exc_type, exc_value, tb)
  File "/Users/Admin/miniconda3/lib/python3.7/site-packages/flask/_compat.py", line 39, in reraise
    raise value
  File "/Users/Admin/miniconda3/lib/python3.7/site-packages/flask/app.py", line 1949, in full_dispatch_request
    rv = self.dispatch_request()
  File "/Users/Admin/miniconda3/lib/python3.7/site-packages/flask/app.py", line 1935, in dispatch_request
    return self.view_functions[rule.endpoint](**req.view_args)
  File "/Users/Admin/Documents/learn/blog/app/routes.py", line 142, in reset_password_request
    send_password_reset_email(user)
  File "/Users/Admin/Documents/learn/blog/app/email.py", line 21, in send_password_reset_email
    html_body = render_template('email/reset_password.html', user = user, token = token))
  File "/Users/Admin/Documents/learn/blog/app/email.py", line 10, in send_email
    mailserver = smtplib.SMTP_SSL('smtp.yandex.ru:465')
NameError: name 'smtplib' is not defined
2020-02-21 14:32:51,594 INFO: Blog startup [in $(pathmane)s:45]
2020-02-21 14:33:11,564 INFO: Blog startup [in $(pathmane)s:45]
2020-02-21 14:34:01,737 INFO: Blog startup [in $(pathmane)s:45]
2020-02-21 14:35:30,225 ERROR: Exception on /reset_password_request [POST] [in $(pathmane)s:1891]
Traceback (most recent call last):
  File "/Users/Admin/miniconda3/lib/python3.7/site-packages/flask/app.py", line 2446, in wsgi_app
    response = self.full_dispatch_request()
  File "/Users/Admin/miniconda3/lib/python3.7/site-packages/flask/app.py", line 1951, in full_dispatch_request
    rv = self.handle_user_exception(e)
  File "/Users/Admin/miniconda3/lib/python3.7/site-packages/flask/app.py", line 1820, in handle_user_exception
    reraise(exc_type, exc_value, tb)
  File "/Users/Admin/miniconda3/lib/python3.7/site-packages/flask/_compat.py", line 39, in reraise
    raise value
  File "/Users/Admin/miniconda3/lib/python3.7/site-packages/flask/app.py", line 1949, in full_dispatch_request
    rv = self.dispatch_request()
  File "/Users/Admin/miniconda3/lib/python3.7/site-packages/flask/app.py", line 1935, in dispatch_request
    return self.view_functions[rule.endpoint](**req.view_args)
  File "/Users/Admin/Documents/learn/blog/app/routes.py", line 142, in reset_password_request
    send_password_reset_email(user)
  File "/Users/Admin/Documents/learn/blog/app/email.py", line 23, in send_password_reset_email
    html_body = render_template('email/reset_password.html', user = user, token = token))
  File "/Users/Admin/Documents/learn/blog/app/email.py", line 11, in send_email
    mail.send(message)
  File "/Users/Admin/miniconda3/lib/python3.7/site-packages/flask_mail.py", line 491, in send
    with self.connect() as connection:
  File "/Users/Admin/miniconda3/lib/python3.7/site-packages/flask_mail.py", line 144, in __enter__
    self.host = self.configure_host()
  File "/Users/Admin/miniconda3/lib/python3.7/site-packages/flask_mail.py", line 158, in configure_host
    host = smtplib.SMTP(self.mail.server, self.mail.port)
  File "/Users/Admin/miniconda3/lib/python3.7/smtplib.py", line 251, in __init__
    (code, msg) = self.connect(host, port)
  File "/Users/Admin/miniconda3/lib/python3.7/smtplib.py", line 338, in connect
    (code, msg) = self.getreply()
  File "/Users/Admin/miniconda3/lib/python3.7/smtplib.py", line 394, in getreply
    raise SMTPServerDisconnected("Connection unexpectedly closed")
smtplib.SMTPServerDisconnected: Connection unexpectedly closed
