2020-02-21 17:11:37,443 ERROR: Exception on /reset_password_request [GET] [in $(pathmane)s:1891]
Traceback (most recent call last):
  File "/Users/Admin/miniconda3/lib/python3.7/site-packages/flask/app.py", line 2446, in wsgi_app
    response = self.full_dispatch_request()
  File "/Users/Admin/miniconda3/lib/python3.7/site-packages/flask/app.py", line 1951, in full_dispatch_request
    rv = self.handle_user_exception(e)
  File "/Users/Admin/miniconda3/lib/python3.7/site-packages/flask/app.py", line 1820, in handle_user_exception
    reraise(exc_type, exc_value, tb)
  File "/Users/Admin/miniconda3/lib/python3.7/site-packages/flask/_compat.py", line 39, in reraise
    raise value
  File "/Users/Admin/miniconda3/lib/python3.7/site-packages/flask/app.py", line 1949, in full_dispatch_request
    rv = self.dispatch_request()
  File "/Users/Admin/miniconda3/lib/python3.7/site-packages/flask/app.py", line 1935, in dispatch_request
    return self.view_functions[rule.endpoint](**req.view_args)
  File "/Users/Admin/Documents/learn/blog/app/routes.py", line 145, in reset_password_request
    return render_template('reset_password_request.html', title = 'Reset Password', form = form)
  File "/Users/Admin/miniconda3/lib/python3.7/site-packages/flask/templating.py", line 138, in render_template
    ctx.app.jinja_env.get_or_select_template(template_name_or_list),
  File "/Users/Admin/miniconda3/lib/python3.7/site-packages/jinja2/environment.py", line 930, in get_or_select_template
    return self.get_template(template_name_or_list, parent, globals)
  File "/Users/Admin/miniconda3/lib/python3.7/site-packages/jinja2/environment.py", line 883, in get_template
    return self._load_template(name, self.make_globals(globals))
  File "/Users/Admin/miniconda3/lib/python3.7/site-packages/jinja2/environment.py", line 857, in _load_template
    template = self.loader.load(self, name, globals)
  File "/Users/Admin/miniconda3/lib/python3.7/site-packages/jinja2/loaders.py", line 129, in load
    code = environment.compile(source, name, filename)
  File "/Users/Admin/miniconda3/lib/python3.7/site-packages/jinja2/environment.py", line 638, in compile
    self.handle_exception(source=source_hint)
  File "/Users/Admin/miniconda3/lib/python3.7/site-packages/jinja2/environment.py", line 832, in handle_exception
    reraise(*rewrite_traceback_stack(source=source))
  File "/Users/Admin/miniconda3/lib/python3.7/site-packages/jinja2/_compat.py", line 28, in reraise
    raise value.with_traceback(tb)
  File "/Users/Admin/Documents/learn/blog/app/templates/reset_password_request.html", line 2, in template
    {% include 'bootstrap/wtf.html' as wtf %}
jinja2.exceptions.TemplateSyntaxError: expected token 'end of statement block', got 'as'
2020-02-21 17:14:03,674 INFO: Blog startup [in $(pathmane)s:47]
2020-02-21 17:22:52,757 INFO: Blog startup [in $(pathmane)s:49]
2020-02-21 17:23:58,440 INFO: Blog startup [in $(pathmane)s:49]
2020-02-21 17:24:36,141 INFO: Blog startup [in $(pathmane)s:49]
2020-02-21 17:38:21,833 INFO: Blog startup [in $(pathmane)s:49]
2020-02-21 17:39:23,598 INFO: Blog startup [in $(pathmane)s:49]
2020-02-21 17:50:10,156 INFO: Blog startup [in $(pathmane)s:51]
2020-02-21 17:54:48,395 INFO: Blog startup [in $(pathmane)s:51]
2020-02-21 17:56:31,000 INFO: Blog startup [in $(pathmane)s:51]
2020-02-21 17:57:24,015 INFO: Blog startup [in $(pathmane)s:51]
2020-02-21 17:59:21,511 INFO: Blog startup [in $(pathmane)s:51]
2020-02-21 17:59:32,474 ERROR: Exception on /login [POST] [in $(pathmane)s:1891]
Traceback (most recent call last):
  File "/Users/Admin/miniconda3/lib/python3.7/site-packages/flask/app.py", line 2446, in wsgi_app
    response = self.full_dispatch_request()
  File "/Users/Admin/miniconda3/lib/python3.7/site-packages/flask/app.py", line 1951, in full_dispatch_request
    rv = self.handle_user_exception(e)
  File "/Users/Admin/miniconda3/lib/python3.7/site-packages/flask/app.py", line 1820, in handle_user_exception
    reraise(exc_type, exc_value, tb)
  File "/Users/Admin/miniconda3/lib/python3.7/site-packages/flask/_compat.py", line 39, in reraise
    raise value
  File "/Users/Admin/miniconda3/lib/python3.7/site-packages/flask/app.py", line 1949, in full_dispatch_request
    rv = self.dispatch_request()
  File "/Users/Admin/miniconda3/lib/python3.7/site-packages/flask/app.py", line 1935, in dispatch_request
    return self.view_functions[rule.endpoint](**req.view_args)
  File "/Users/Admin/Documents/learn/blog/app/routes.py", line 46, in login
    print(moment(user.last_seen).format('L'))
NameError: name 'moment' is not defined
2020-02-21 17:59:35,155 ERROR: Exception on /login [POST] [in $(pathmane)s:1891]
Traceback (most recent call last):
  File "/Users/Admin/miniconda3/lib/python3.7/site-packages/flask/app.py", line 2446, in wsgi_app
    response = self.full_dispatch_request()
  File "/Users/Admin/miniconda3/lib/python3.7/site-packages/flask/app.py", line 1951, in full_dispatch_request
    rv = self.handle_user_exception(e)
  File "/Users/Admin/miniconda3/lib/python3.7/site-packages/flask/app.py", line 1820, in handle_user_exception
    reraise(exc_type, exc_value, tb)
  File "/Users/Admin/miniconda3/lib/python3.7/site-packages/flask/_compat.py", line 39, in reraise
    raise value
  File "/Users/Admin/miniconda3/lib/python3.7/site-packages/flask/app.py", line 1949, in full_dispatch_request
    rv = self.dispatch_request()
  File "/Users/Admin/miniconda3/lib/python3.7/site-packages/flask/app.py", line 1935, in dispatch_request
    return self.view_functions[rule.endpoint](**req.view_args)
  File "/Users/Admin/Documents/learn/blog/app/routes.py", line 46, in login
    print(moment(user.last_seen).format('L'))
NameError: name 'moment' is not defined
2020-02-21 18:00:20,458 INFO: Blog startup [in $(pathmane)s:51]
2020-02-21 18:00:35,366 ERROR: Exception on /login [POST] [in $(pathmane)s:1891]
Traceback (most recent call last):
  File "/Users/Admin/miniconda3/lib/python3.7/site-packages/flask/app.py", line 2446, in wsgi_app
    response = self.full_dispatch_request()
  File "/Users/Admin/miniconda3/lib/python3.7/site-packages/flask/app.py", line 1951, in full_dispatch_request
    rv = self.handle_user_exception(e)
  File "/Users/Admin/miniconda3/lib/python3.7/site-packages/flask/app.py", line 1820, in handle_user_exception
    reraise(exc_type, exc_value, tb)
  File "/Users/Admin/miniconda3/lib/python3.7/site-packages/flask/_compat.py", line 39, in reraise
    raise value
  File "/Users/Admin/miniconda3/lib/python3.7/site-packages/flask/app.py", line 1949, in full_dispatch_request
    rv = self.dispatch_request()
  File "/Users/Admin/miniconda3/lib/python3.7/site-packages/flask/app.py", line 1935, in dispatch_request
    return self.view_functions[rule.endpoint](**req.view_args)
  File "/Users/Admin/Documents/learn/blog/app/routes.py", line 45, in login
    print(moment(user.last_seen).format('L'))
TypeError: 'Moment' object is not callable
2020-02-21 18:00:53,635 INFO: Blog startup [in $(pathmane)s:51]
2020-02-25 09:22:46,673 INFO: Blog startup [in $(pathmane)s:51]
2020-02-25 09:28:08,918 INFO: Blog startup [in $(pathmane)s:51]
2020-02-25 09:34:37,617 INFO: Blog startup [in $(pathmane)s:51]
2020-02-25 09:35:45,496 INFO: Blog startup [in $(pathmane)s:51]
2020-02-25 10:53:35,921 INFO: Blog startup [in $(pathmane)s:53]
2020-02-25 10:53:46,182 ERROR: Exception on /user/ilya [GET] [in $(pathmane)s:1891]
Traceback (most recent call last):
  File "/Users/Admin/miniconda3/lib/python3.7/site-packages/flask/app.py", line 2446, in wsgi_app
    response = self.full_dispatch_request()
  File "/Users/Admin/miniconda3/lib/python3.7/site-packages/flask/app.py", line 1951, in full_dispatch_request
    rv = self.handle_user_exception(e)
  File "/Users/Admin/miniconda3/lib/python3.7/site-packages/flask/app.py", line 1820, in handle_user_exception
    reraise(exc_type, exc_value, tb)
  File "/Users/Admin/miniconda3/lib/python3.7/site-packages/flask/_compat.py", line 39, in reraise
    raise value
  File "/Users/Admin/miniconda3/lib/python3.7/site-packages/flask/app.py", line 1949, in full_dispatch_request
    rv = self.dispatch_request()
  File "/Users/Admin/miniconda3/lib/python3.7/site-packages/flask/app.py", line 1935, in dispatch_request
    return self.view_functions[rule.endpoint](**req.view_args)
  File "/Users/Admin/miniconda3/lib/python3.7/site-packages/flask_login/utils.py", line 272, in decorated_view
    return func(*args, **kwargs)
  File "/Users/Admin/Documents/learn/blog/app/routes.py", line 79, in user
    return render_template('user.html', title = 'Profile', user = user, posts = posts.items, next_url = next_url, prev_url = prev_url)
  File "/Users/Admin/miniconda3/lib/python3.7/site-packages/flask/templating.py", line 140, in render_template
    ctx.app,
  File "/Users/Admin/miniconda3/lib/python3.7/site-packages/flask/templating.py", line 120, in _render
    rv = template.render(context)
  File "/Users/Admin/miniconda3/lib/python3.7/site-packages/jinja2/environment.py", line 1090, in render
    self.environment.handle_exception()
  File "/Users/Admin/miniconda3/lib/python3.7/site-packages/jinja2/environment.py", line 832, in handle_exception
    reraise(*rewrite_traceback_stack(source=source))
  File "/Users/Admin/miniconda3/lib/python3.7/site-packages/jinja2/_compat.py", line 28, in reraise
    raise value.with_traceback(tb)
  File "/Users/Admin/Documents/learn/blog/app/templates/user.html", line 1, in top-level template code
    {% extends 'base.html' %}
  File "/Users/Admin/miniconda3/lib/python3.7/site-packages/jinja2/environment.py", line 832, in handle_exception
    reraise(*rewrite_traceback_stack(source=source))
  File "/Users/Admin/miniconda3/lib/python3.7/site-packages/jinja2/_compat.py", line 28, in reraise
    raise value.with_traceback(tb)
  File "/Users/Admin/Documents/learn/blog/app/templates/base.html", line 28, in template
    <li><a href = "{{ url_for('user', username = current_user.username) }}">{{ _('Профиль') }}</a></li>
jinja2.exceptions.TemplateSyntaxError: expected token ',', got 'user'
