2020-02-21 13:10:31,977 ERROR: Exception on /reset_password_request [GET] [in $(pathmane)s:1891]
Traceback (most recent call last):
  File "/Users/Admin/miniconda3/lib/python3.7/site-packages/flask/app.py", line 2446, in wsgi_app
    response = self.full_dispatch_request()
  File "/Users/Admin/miniconda3/lib/python3.7/site-packages/flask/app.py", line 1951, in full_dispatch_request
    rv = self.handle_user_exception(e)
  File "/Users/Admin/miniconda3/lib/python3.7/site-packages/flask/app.py", line 1820, in handle_user_exception
    reraise(exc_type, exc_value, tb)
  File "/Users/Admin/miniconda3/lib/python3.7/site-packages/flask/_compat.py", line 39, in reraise
    raise value
  File "/Users/Admin/miniconda3/lib/python3.7/site-packages/flask/app.py", line 1949, in full_dispatch_request
    rv = self.dispatch_request()
  File "/Users/Admin/miniconda3/lib/python3.7/site-packages/flask/app.py", line 1935, in dispatch_request
    return self.view_functions[rule.endpoint](**req.view_args)
  File "/Users/Admin/Documents/learn/blog/app/routes.py", line 145, in reset_password_request
    return render_template('reset_password_request.html', title = 'Reset Password', form = form)
  File "/Users/Admin/miniconda3/lib/python3.7/site-packages/flask/templating.py", line 138, in render_template
    ctx.app.jinja_env.get_or_select_template(template_name_or_list),
  File "/Users/Admin/miniconda3/lib/python3.7/site-packages/jinja2/environment.py", line 930, in get_or_select_template
    return self.get_template(template_name_or_list, parent, globals)
  File "/Users/Admin/miniconda3/lib/python3.7/site-packages/jinja2/environment.py", line 883, in get_template
    return self._load_template(name, self.make_globals(globals))
  File "/Users/Admin/miniconda3/lib/python3.7/site-packages/jinja2/environment.py", line 857, in _load_template
    template = self.loader.load(self, name, globals)
  File "/Users/Admin/miniconda3/lib/python3.7/site-packages/jinja2/loaders.py", line 129, in load
    code = environment.compile(source, name, filename)
  File "/Users/Admin/miniconda3/lib/python3.7/site-packages/jinja2/environment.py", line 638, in compile
    self.handle_exception(source=source_hint)
  File "/Users/Admin/miniconda3/lib/python3.7/site-packages/jinja2/environment.py", line 832, in handle_exception
    reraise(*rewrite_traceback_stack(source=source))
  File "/Users/Admin/miniconda3/lib/python3.7/site-packages/jinja2/_compat.py", line 28, in reraise
    raise value.with_traceback(tb)
  File "/Users/Admin/Documents/learn/blog/app/templates/reset_password_request.html", line 16, in template
    {% block content %}
jinja2.exceptions.TemplateSyntaxError: Unexpected end of template. Jinja was looking for the following tags: 'endblock'. The innermost block that needs to be closed is 'block'.
2020-02-21 13:11:13,287 INFO: Blog startup [in $(pathmane)s:45]
2020-02-21 13:11:16,221 ERROR: Exception on /reset_password_request [GET] [in $(pathmane)s:1891]
Traceback (most recent call last):
  File "/Users/Admin/miniconda3/lib/python3.7/site-packages/flask/app.py", line 2446, in wsgi_app
    response = self.full_dispatch_request()
  File "/Users/Admin/miniconda3/lib/python3.7/site-packages/flask/app.py", line 1951, in full_dispatch_request
    rv = self.handle_user_exception(e)
  File "/Users/Admin/miniconda3/lib/python3.7/site-packages/flask/app.py", line 1820, in handle_user_exception
    reraise(exc_type, exc_value, tb)
  File "/Users/Admin/miniconda3/lib/python3.7/site-packages/flask/_compat.py", line 39, in reraise
    raise value
  File "/Users/Admin/miniconda3/lib/python3.7/site-packages/flask/app.py", line 1949, in full_dispatch_request
    rv = self.dispatch_request()
  File "/Users/Admin/miniconda3/lib/python3.7/site-packages/flask/app.py", line 1935, in dispatch_request
    return self.view_functions[rule.endpoint](**req.view_args)
  File "/Users/Admin/Documents/learn/blog/app/routes.py", line 145, in reset_password_request
    return render_template('reset_password_request.html', title = 'Reset Password', form = form)
  File "/Users/Admin/miniconda3/lib/python3.7/site-packages/flask/templating.py", line 140, in render_template
    ctx.app,
  File "/Users/Admin/miniconda3/lib/python3.7/site-packages/flask/templating.py", line 120, in _render
    rv = template.render(context)
  File "/Users/Admin/miniconda3/lib/python3.7/site-packages/jinja2/environment.py", line 1090, in render
    self.environment.handle_exception()
  File "/Users/Admin/miniconda3/lib/python3.7/site-packages/jinja2/environment.py", line 832, in handle_exception
    reraise(*rewrite_traceback_stack(source=source))
  File "/Users/Admin/miniconda3/lib/python3.7/site-packages/jinja2/_compat.py", line 28, in reraise
    raise value.with_traceback(tb)
  File "/Users/Admin/Documents/learn/blog/app/templates/reset_password_request.html", line 1, in top-level template code
    {% extends "base.html" %}
  File "/Users/Admin/Documents/learn/blog/app/templates/base.html", line 28, in top-level template code
    {% block content %}{% endblock %}
  File "/Users/Admin/Documents/learn/blog/app/templates/reset_password_request.html", line 9, in block "content"
    {{ from.email(size = 64) }}<br>
  File "/Users/Admin/miniconda3/lib/python3.7/site-packages/jinja2/environment.py", line 471, in getattr
    return getattr(obj, attribute)
jinja2.exceptions.UndefinedError: 'from' is undefined
2020-02-21 13:11:40,277 INFO: Blog startup [in $(pathmane)s:45]
2020-02-21 14:03:24,487 ERROR: Exception on /reset_password_request [POST] [in $(pathmane)s:1891]
Traceback (most recent call last):
  File "/Users/Admin/miniconda3/lib/python3.7/site-packages/flask/app.py", line 2446, in wsgi_app
    response = self.full_dispatch_request()
  File "/Users/Admin/miniconda3/lib/python3.7/site-packages/flask/app.py", line 1951, in full_dispatch_request
    rv = self.handle_user_exception(e)
  File "/Users/Admin/miniconda3/lib/python3.7/site-packages/flask/app.py", line 1820, in handle_user_exception
    reraise(exc_type, exc_value, tb)
  File "/Users/Admin/miniconda3/lib/python3.7/site-packages/flask/_compat.py", line 39, in reraise
    raise value
  File "/Users/Admin/miniconda3/lib/python3.7/site-packages/flask/app.py", line 1949, in full_dispatch_request
    rv = self.dispatch_request()
  File "/Users/Admin/miniconda3/lib/python3.7/site-packages/flask/app.py", line 1935, in dispatch_request
    return self.view_functions[rule.endpoint](**req.view_args)
  File "/Users/Admin/Documents/learn/blog/app/routes.py", line 142, in reset_password_request
    send_password_reset_email(user)
  File "/Users/Admin/Documents/learn/blog/app/email.py", line 12, in send_password_reset_email
    token = user.get_reset_password_token()
  File "/Users/Admin/Documents/learn/blog/app/models.py", line 64, in get_reset_password_token
    return jwt.encode(
NameError: name 'jwt' is not defined
2020-02-21 14:05:48,457 INFO: Blog startup [in $(pathmane)s:45]
2020-02-21 14:05:56,461 ERROR: Exception on /reset_password_request [POST] [in $(pathmane)s:1891]
Traceback (most recent call last):
  File "/Users/Admin/miniconda3/lib/python3.7/site-packages/flask/app.py", line 2446, in wsgi_app
    response = self.full_dispatch_request()
  File "/Users/Admin/miniconda3/lib/python3.7/site-packages/flask/app.py", line 1951, in full_dispatch_request
    rv = self.handle_user_exception(e)
  File "/Users/Admin/miniconda3/lib/python3.7/site-packages/flask/app.py", line 1820, in handle_user_exception
    reraise(exc_type, exc_value, tb)
  File "/Users/Admin/miniconda3/lib/python3.7/site-packages/flask/_compat.py", line 39, in reraise
    raise value
  File "/Users/Admin/miniconda3/lib/python3.7/site-packages/flask/app.py", line 1949, in full_dispatch_request
    rv = self.dispatch_request()
  File "/Users/Admin/miniconda3/lib/python3.7/site-packages/flask/app.py", line 1935, in dispatch_request
    return self.view_functions[rule.endpoint](**req.view_args)
  File "/Users/Admin/Documents/learn/blog/app/routes.py", line 142, in reset_password_request
    send_password_reset_email(user)
  File "/Users/Admin/Documents/learn/blog/app/email.py", line 14, in send_password_reset_email
    sender = app.config['ADMINS'][0],
NameError: name 'app' is not defined
2020-02-21 14:06:19,386 INFO: Blog startup [in $(pathmane)s:45]
2020-02-21 14:06:24,100 ERROR: Exception on /reset_password_request [POST] [in $(pathmane)s:1891]
Traceback (most recent call last):
  File "/Users/Admin/miniconda3/lib/python3.7/site-packages/flask/app.py", line 2446, in wsgi_app
    response = self.full_dispatch_request()
  File "/Users/Admin/miniconda3/lib/python3.7/site-packages/flask/app.py", line 1951, in full_dispatch_request
    rv = self.handle_user_exception(e)
  File "/Users/Admin/miniconda3/lib/python3.7/site-packages/flask/app.py", line 1820, in handle_user_exception
    reraise(exc_type, exc_value, tb)
  File "/Users/Admin/miniconda3/lib/python3.7/site-packages/flask/_compat.py", line 39, in reraise
    raise value
  File "/Users/Admin/miniconda3/lib/python3.7/site-packages/flask/app.py", line 1949, in full_dispatch_request
    rv = self.dispatch_request()
  File "/Users/Admin/miniconda3/lib/python3.7/site-packages/flask/app.py", line 1935, in dispatch_request
    return self.view_functions[rule.endpoint](**req.view_args)
  File "/Users/Admin/Documents/learn/blog/app/routes.py", line 142, in reset_password_request
    send_password_reset_email(user)
  File "/Users/Admin/Documents/learn/blog/app/email.py", line 17, in send_password_reset_email
    text_body = render_template('email/reset_password.txt', user = user, token = token),
NameError: name 'render_template' is not defined
2020-02-21 14:07:39,003 INFO: Blog startup [in $(pathmane)s:45]
